119.81.71.27:80
119.81.71.27:8123
66.228.61.159:8080
163.172.157.7:80
159.8.114.37:80
88.198.24.108:8080
176.9.75.42:8080
88.198.50.103:3128
88.198.50.103:8080
139.162.78.109:3128
20.94.230.158:80
110.165.23.162:80
139.162.78.109:8080
20.194.122.134:9090
47.242.230.213:12345
103.101.3.19:8080
186.176.212.212:9080
119.28.2.246:3128
103.73.194.2:80
202.162.232.31:80
145.40.73.107:10001
128.199.108.29:3128
103.92.114.2:443
145.40.73.102:80
41.128.148.84:1981
45.79.230.234:443
186.176.215.181:9080
20.105.253.176:8080
103.92.114.2:80
52.183.8.192:3128
136.243.38.238:3128
192.12.222.6:3128
186.176.212.213:9080
98.12.195.129:443
194.233.69.38:443
95.220.214.118:8080
130.185.119.20:3128
1.20.217.221:8080
1.186.40.35:1111
41.79.191.182:80
43.155.92.192:59394
217.16.188.90:3128
213.5.190.194:41890
112.6.117.135:8085
41.79.191.183:80
43.255.113.232:86
223.25.99.116:9999
46.35.249.189:41419
154.236.177.100:1981
169.57.157.148:80
169.57.157.146:8123
170.81.37.54:8080
138.68.250.159:3128
58.20.234.243:9091
41.65.236.37:1981
101.6.52.137:7890
89.250.149.114:60981
43.255.113.232:81
185.46.9.133:3128
45.167.253.129:999
43.255.113.232:8081
51.79.144.52:8000
43.255.113.232:8082
59.50.95.62:8091
185.134.96.34:8081
188.133.158.145:8080
139.99.99.165:80
51.79.144.52:3128
51.79.144.52:8080
103.168.164.26:83
45.224.153.58:999
143.208.200.26:7878
186.159.3.193:56861
181.198.194.23:3127
47.96.151.68:7890
64.17.30.238:63141
41.79.191.181:80
187.87.189.252:55443
164.70.117.141:3128
164.70.64.126:3128
116.101.31.142:4001
173.212.228.57:3128
164.70.121.242:3128
49.231.174.182:80
103.80.83.48:3127
202.62.93.194:8080
223.29.199.144:55443
58.251.94.56:6666
46.191.239.183:8080
85.25.108.234:5566
182.18.83.42:6666
186.16.206.162:999
62.201.217.194:8080
185.142.67.23:8080
91.221.240.253:1515
65.21.111.230:5566
91.244.114.193:48080
161.117.89.36:8888
181.204.104.74:8080
188.133.173.21:8080
5.153.234.91:3128
138.3.223.120:3128
103.243.114.206:8080
182.176.164.41:8080
27.72.95.176:8080
14.139.109.148:3128
103.14.199.192:83
190.90.86.81:999
43.228.125.189:8080
82.99.232.18:58689
1.13.165.87:8080
95.66.142.11:8080
103.126.85.173:8080
143.55.47.106:8080
111.92.240.134:30598
80.55.131.214:52014
128.199.202.122:3128
117.54.238.61:8080
139.255.94.122:39635
176.107.133.123:3128
185.17.134.149:45984
43.255.113.232:8080
182.43.183.11:8888
135.181.216.20:5566
1.1.189.58:8080
182.237.16.7:83
139.99.99.165:8080
81.24.117.250:18080
186.183.220.2:8080
200.114.97.4:999
160.16.233.90:3128
103.54.43.131:8080
103.110.90.250:8080
173.197.167.242:8080
116.0.54.30:8080
167.71.5.83:8080
190.220.1.173:56974
110.74.199.16:63141
45.167.95.184:8085
167.86.81.208:3128
14.192.3.161:83
76.80.19.107:8080
139.99.99.165:8000
190.145.38.78:999
111.92.164.242:50249
205.201.49.131:53281
158.58.133.106:41258
27.150.27.133:10080
181.129.49.214:999
47.111.176.17:88
41.65.236.58:1981
85.158.75.102:53281
59.152.91.106:8080
47.243.135.104:8080
107.172.86.38:14999
212.174.44.41:8080
176.214.99.101:1256
8.210.48.101:17046
157.230.40.79:8080
8.210.48.101:18387
121.40.162.46:8001
190.187.201.26:8080
41.204.87.90:8080
177.86.201.22:8080
139.255.74.125:8080
212.92.204.54:8080
177.128.244.131:8080
95.216.247.71:40086
164.70.75.194:3128
14.139.184.130:3128
51.159.5.133:3128
103.87.26.118:8080
149.56.96.252:5566
8.210.48.101:17416
20.81.62.32:3128
209.45.97.110:999
212.248.42.202:3128
175.111.129.154:8080
8.210.48.101:18054
8.210.48.101:17890
181.224.207.18:999
191.102.64.147:999
176.214.97.13:8081
8.210.48.101:18290
183.88.220.1:8080
140.227.211.47:8080
172.104.34.170:8080
36.66.16.193:80
101.255.149.213:8080
45.122.233.76:55443
154.236.184.68:1981
8.210.48.101:17506
187.62.67.134:45005
46.10.199.90:54567
179.49.161.74:999
8.210.48.101:17663
5.134.221.222:8080
103.36.35.135:8080
8.210.48.101:17950
46.238.230.4:8080
103.160.201.76:8080
8.210.48.101:18046
177.222.20.123:8080
82.114.106.40:1256
45.231.148.33:10101
8.210.48.101:18342
8.210.48.101:17583
217.60.194.43:8080
8.210.48.101:18196
181.143.191.138:999
47.243.225.209:8080
8.210.48.101:17673
8.210.48.101:18033
8.210.48.101:17647
8.210.48.101:18366
8.210.48.101:17288
187.94.209.246:3128
200.39.153.1:999
78.157.225.216:3128
85.25.119.241:5566
14.140.131.82:3128
160.19.240.58:8080
52.206.253.183:80
8.210.48.101:17544
190.186.1.65:999
8.210.48.101:17710
128.199.214.230:3128
8.210.48.101:17867
8.210.48.101:18150
190.216.107.254:999
